<svg xmlns="http://www.w3.org/2000/svg" xmlns:xlink="http://www.w3.org/1999/xlink" id="Layer_2" viewBox="0 0 436.5 128">
  <path id="XMLID_34_" d="M412.957489 3.0462036h-33.4960022v12.8380051h20.6579895v48.7439956h12.8380127V15.8842087h20.6589966V3.0462036z" class="st0"/>
  <path id="XMLID_33_" d="M83.6384964 3.0462036H70.8004913v61.5820007H113.896492V51.7902069H83.6384964V40.2552032h23.8789978V27.4182053H83.6384964V15.8842087h30.2579956V3.0462036z" class="st0"/>
  <path id="XMLID_30_" d="M215.2126007 51.790802h-9.4940033V15.8838043h9.4940033c9.9149933 0 17.9539948 8.0379944 17.9539948 17.9529953S225.127594 51.790802 215.2126007 51.790802m0-48.7450027H192.8806V64.6278H215.2126007c17.0049896 0 30.7910004-13.7859955 30.7910004-30.7910004S232.2175903 3.0457993 215.2126007 3.0457993" class="st0"/>
  <path id="XMLID_27_" d="M155.4360962 33.7909012v.0459976h-12.6719971V15.8839035h13.1759949c4.753006.2490005 8.5299988 4.1589966 8.5099945 8.9690018-.0209961 4.9569931-4.0559998 8.9589996-9.0139923 8.9379959m13.1840057 8.3239975c5.2089996-3.9659958 8.6379852-10.1569977 8.6669922-17.2099991.0500031-12.0469971-9.6759949-21.8539963-21.723999-21.9049988v.2519989l-.0899963-.2060013h-25.5460052v61.5820007h12.8370056V46.6749039h12.7089996v-.0540009c.276001 0 .5329895-.0680008.8049927-.0780029l11.0769958 18.0849991h15.0540009l-13.7889863-22.5130005z" class="st0"/>
  <path id="XMLID_26_" fill="none" d="M1.5 3h432.1159973v120H1.5z"/>
  <path id="XMLID_24_" d="M356.1701965 3.0462036v37.6839981L328.7401733 6.4922104l-2.7619934-3.4460068h-10.0759887V64.6282043h12.8379821V27.0252075l27.4300232 34.2359963 2.6959839 3.3670005h10.1419983V3.0462036z" class="st0"/>
  <path id="XMLID_23_" d="M45.3191986 3.0462036l-15.0990009 42.602005-15.0999985-42.602005H1.5001984L23.327198 64.6282043h13.7869988L58.940197 3.0462036z" class="st0"/>
  <path id="XMLID_22_" d="M284.1503906 3.0462036h-13.6210022l-21.826004 61.5820007h13.6199799l15.1000061-42.6039962 15.1000061 42.6039962h13.618988L284.3173828 3.0462036z" class="st0"/>
  <g id="XMLID_5_">
    <defs>
      <path id="XMLID_6_" d="M1.5 3h432.1159973v120H1.5z"/>
    </defs>
    <clipPath id="XMLID_25_">
      <use overflow="visible" xlink:href="#XMLID_6_"/>
    </clipPath>
    <path id="XMLID_7_" fill="#fff" d="M351.1524048 123.0000458c3.4990234 0 6.0160217-1.9629974 6.0160217-4.9840012v-.0499954c0-2.6949997-1.8120117-4.1290054-5.7390137-4.9850006-3.8769836-.8310013-4.7829895-1.762001-4.7829895-3.4230042v-.0509949c0-1.5859985 1.4599915-2.8440018 3.7510071-2.8440018 1.8119812 0 3.447998.5779953 5.0849915 1.913002l1.1579895-1.5360031c-1.7879944-1.4349976-3.625-2.1650009-6.1929932-2.1650009-3.3479919 0-5.7900085 2.0390015-5.7900085 4.8089981v.0490036c0 2.8959961 1.8630066 4.2040024 5.9160156 5.0849991 3.6999817.7819977 4.5820007 1.711998 4.5820007 3.348999v.0500031c0 1.7369995-1.5610046 2.9959946-3.928009 2.9959946-2.4410095 0-4.2030029-.8309937-6.0409851-2.4919968l-1.2340088 1.4599991c2.1149902 1.8870011 4.4060059 2.8190003 7.1999817 2.8190003m-28.6469727-.2519989h2.0140076v-15.7829971h5.914978v-1.8380051h-13.8450012v1.8380051h5.9160156v15.7829971zm-35.8720092 0h1.9379883v-14.4489975l11.3790283 14.4489975h1.5859985v-17.6210022h-1.9390259v14.1220016l-11.1009827-14.1220016h-1.8630066v17.6210022zm-28.1940003 0h12.8640137v-1.8119965h-10.875v-6.1670074h9.6159973v-1.8129959h-9.6159973v-6.0169983h10.7489929v-1.8120041h-12.7380066v17.6210022zm-33.1779938 0h1.9380035v-14.2480011l6.4190063 9.4150009h.1009979l6.4189911-9.439003v14.2720032h1.9889984v-17.6210022h-2.0139923l-6.4190063 9.6160049-6.4189911-9.6160049h-2.0140076v17.6210022zm-22.9830017 0h2.0140076v-15.7829971h5.9149933v-1.8380051h-13.8450012v1.8380051h5.9160004v15.7829971zm-32.0209961-8.6340027v-7.1489944h5.4380035c2.8439941 0 4.5059967 1.3079987 4.5059967 3.4729996v.0509949c0 2.2660065-1.8880005 3.625-4.5310059 3.625h-5.4129943zm-1.9880066 8.6340027h1.9880066v-6.8470001h5.0350037l5.1100006 6.8470001h2.4420013l-5.4120026-7.1989975c2.7689972-.5040054 4.7829895-2.215004 4.7829895-5.1360016v-.0500031c0-1.3850021-.5039978-2.6179962-1.3600006-3.4729996-1.1069946-1.1089935-2.8439941-1.7630005-5.0089874-1.7630005h-7.5770111v17.6210023zm-27.8170013-6.4690018l4.0279999-8.961998 4.003006 8.961998h-8.0310059zm-4.9089966 6.4690018h2.0390015l2.0899963-4.6559982h9.5910034l2.0639954 4.6559982h2.1399994l-8.0299988-17.7470016h-1.8629913l-8.0310059 17.7470016zm-22.8819961-8.0299988v-7.7529984h4.4550018c2.8450012 0 4.7330017 1.3079987 4.7330017 3.8259964v.0510025c0 2.3149948-1.913002 3.8759995-4.8330002 3.8759995h-4.3550033zm-1.9889985 8.0299988h1.9889984v-6.2180023h4.2789993c3.7509995 0 6.9230042-1.9629974 6.9230042-5.7639999v-.0499954c0-3.4750061-2.6180038-5.5890045-6.5960007-5.5890045h-6.5950012v17.6210021zm-27.8160018-6.4690018l4.0279999-8.961998 4.0019989 8.961998h-8.0299988zm-4.9089966 6.4690018h2.0389938l2.0890045-4.6559982h9.5909958l2.0650024 4.6559982h2.139l-8.0299988-17.7470016h-1.862999l-8.0299987 17.7470016z" clip-path="url(#XMLID_25_)"/>
  </g>
  <path id="XMLID_2_" fill="#77c045" d="M8.4180002 80.2290039h418.2810059v7.1730003H8.4180002z"/>
</svg>
