{
  "id": 1600,
  "editor": {
    "selected_shape": "text-6415",
    "tool": "select"
  },
  "general": {
    "name": "LocationMap",
    "shortcode": "LocationMap",
    "width": 1296,
    "height": 876,
    "naturalWidth": 1296,
    "naturalHeight": 876,
    "center_image_map": 1
  },
  "image": {
    "url": "https://s3-ap-southeast-2.amazonaws.com/loaded-static-img/wp/mystirling/verdant/location-map-final.jpg"
  },
  "shapes": {
    "stop_glowing_on_mouseover": 0
  },
  "tooltips": {
    "show_tooltips": "click",
    "constrain_tooltips": 0,
    "fullscreen_tooltips": "none"
  },
  "layers": {
    "layers_list": [ {
      "id": 0,
      "title": "Shopping",
      "image_url": "https://s3-ap-southeast-2.amazonaws.com/loaded-static-img/wp/mystirling/verdant/location-map-final.jpg",
      "image_width": 1296,
      "image_height": 876
    } ]
  },
  "spots": [ {
    "id": "text-61",
    "title": "Hay Street Mall - 600m",
    "type": "text",
    "x": 40.033,
    "y": 48.307,
    "x_image_background": 40.033,
    "y_image_background": 48.307,
    "text": {
      "text": "01",
      "text_color": "#75c043"
    },
    "default_style": {
      "background_color": "#75c043",
      "background_opacity": 1,
      "icon_fill": "#75c043"
    },
    "tooltip_content": {
      "squares_settings": {
        "containers": [ {
          "id": "sq-container-403761",
          "settings": {
            "elements": [ {
              "settings": {
                "name": "Paragraph",
                "iconClass": "fa fa-paragraph"
              }
            } ]
          }
        } ]
      }
    }
  }, {
    "id": "text-8656",
    "title": "City West 1.6km",
    "type": "text",
    "x": 95.307,
    "y": 21.452,
    "x_image_background": 95.307,
    "y_image_background": 21.452,
    "text": {
      "text": "02",
      "text_color": "#75c043"
    },
    "default_style": {
      "background_color": "#75c043",
      "background_opacity": 1,
      "icon_fill": "#75c043"
    },
    "tooltip_content": {
      "squares_settings": {
        "containers": [ {
          "id": "sq-container-403761",
          "settings": {
            "elements": [ {
              "settings": {
                "name": "Paragraph",
                "iconClass": "fa fa-paragraph"
              }
            } ]
          }
        } ]
      }
    }
  }, {
    "id": "text-3603",
    "title": "Chinatown - 450m",
    "type": "text",
    "x": 81.652,
    "y": 43.468,
    "x_image_background": 81.652,
    "y_image_background": 43.468,
    "text": {
      "text": "03",
      "text_color": "#75c043"
    },
    "default_style": {
      "background_color": "#75c043",
      "background_opacity": 1,
      "icon_fill": "#75c043"
    },
    "tooltip_content": {
      "squares_settings": {
        "containers": [ {
          "id": "sq-container-403761",
          "settings": {
            "elements": [ {
              "settings": {
                "name": "Paragraph",
                "iconClass": "fa fa-paragraph"
              }
            } ]
          }
        } ]
      }
    }
  }, {
    "id": "text-6415",
    "title": "CBD - 570m",
    "type": "text",
    "x": 36.517,
    "y": 41.774,
    "x_image_background": 36.517,
    "y_image_background": 41.774,
    "text": {
      "text": "04",
      "text_color": "#75c043"
    },
    "default_style": {
      "background_color": "#75c043",
      "background_opacity": 1,
      "icon_fill": "#75c043"
    },
    "tooltip_content": {
      "squares_settings": {
        "containers": [ {
          "id": "sq-container-403761",
          "settings": {
            "elements": [ {
              "settings": {
                "name": "Paragraph",
                "iconClass": "fa fa-paragraph"
              }
            } ]
          }
        } ]
      }
    }
  }, {
    "id": "text-5076",
    "title": "Woolworths Murray Street - 420m",
    "type": "text",
    "x": 40.851,
    "y": 54.355,
    "x_image_background": 40.851,
    "y_image_background": 54.355,
    "text": {
      "text": "05",
      "text_color": "#75c043"
    },
    "default_style": {
      "background_color": "#75c043",
      "background_opacity": 1,
      "icon_fill": "#75c043"
    },
    "tooltip_content": {
      "squares_settings": {
        "containers": [ {
          "id": "sq-container-403761",
          "settings": {
            "elements": [ {
              "settings": {
                "name": "Paragraph",
                "iconClass": "fa fa-paragraph"
              }
            } ]
          }
        } ]
      }
    }
  }, {
    "id": "text-9394",
    "title": "Northbridge Super IGA - 340m",
    "type": "text",
    "x": 92.773,
    "y": 69.839,
    "x_image_background": 92.773,
    "y_image_background": 69.839,
    "text": {
      "text": "06",
      "text_color": "#75c043"
    },
    "default_style": {
      "background_color": "#75c043",
      "background_opacity": 1,
      "icon_fill": "#75c043"
    },
    "tooltip_content": {
      "squares_settings": {
        "containers": [ {
          "id": "sq-container-403761",
          "settings": {
            "elements": [ {
              "settings": {
                "name": "Paragraph",
                "iconClass": "fa fa-paragraph"
              }
            } ]
          }
        } ]
      }
    }
  }, {
    "id": "text-5497",
    "title": "William Street Retail Strip - 450m",
    "type": "text",
    "x": 50.99,
    "y": 40.323,
    "x_image_background": 50.99,
    "y_image_background": 40.323,
    "text": {
      "text": "07",
      "text_color": "#75c043"
    },
    "default_style": {
      "background_color": "#75c043",
      "background_opacity": 1,
      "icon_fill": "#75c043"
    },
    "tooltip_content": {
      "squares_settings": {
        "containers": [ {
          "id": "sq-container-403761",
          "settings": {
            "elements": [ {
              "settings": {
                "name": "Paragraph",
                "iconClass": "fa fa-paragraph"
              }
            } ]
          }
        } ]
      }
    }
  }, {
    "id": "text-1178",
    "title": "Coles Raine Square - 610m",
    "type": "text",
    "x": 58.102,
    "y": 41.654,
    "x_image_background": 58.102,
    "y_image_background": 41.654,
    "text": {
      "text": "08",
      "text_color": "#75c043"
    },
    "default_style": {
      "background_color": "#75c043",
      "background_opacity": 1,
      "icon_fill": "#75c043"
    },
    "tooltip_content": {
      "squares_settings": {
        "containers": [ {
          "id": "sq-container-403761",
          "settings": {
            "elements": [ {
              "settings": {
                "name": "Paragraph",
                "iconClass": "fa fa-paragraph"
              }
            } ]
          }
        } ]
      }
    }
  }, {
    "id": "text-8641",
    "title": "Mechanics Institute - 400m",
    "type": "text",
    "x": 82.829,
    "y": 50.06,
    "x_image_background": 82.829,
    "y_image_background": 50.06,
    "text": {
      "text": "09",
      "text_color": "#45b5cc"
    },
    "tooltip_content": {
      "squares_settings": {
        "containers": [ {
          "id": "sq-container-403761",
          "settings": {
            "elements": [ {
              "settings": {
                "name": "Paragraph",
                "iconClass": "fa fa-paragraph"
              }
            } ]
          }
        } ]
      }
    }
  }, {
    "id": "text-7792",
    "title": "Gordon Street Garage - 1.5km",
    "type": "text",
    "x": 76.779,
    "y": 22.479,
    "x_image_background": 76.779,
    "y_image_background": 22.479,
    "text": {
      "text": "10",
      "text_color": "#45b5cc"
    },
    "tooltip_content": {
      "squares_settings": {
        "containers": [ {
          "id": "sq-container-403761",
          "settings": {
            "elements": [ {
              "settings": {
                "name": "Paragraph",
                "iconClass": "fa fa-paragraph"
              }
            } ]
          }
        } ]
      }
    }
  }, {
    "id": "text-2087",
    "title": "Bar 399 - 670m",
    "type": "text",
    "x": 96.893,
    "y": 52.116,
    "x_image_background": 96.893,
    "y_image_background": 52.116,
    "text": {
      "text": "11",
      "text_color": "#45b5cc"
    },
    "tooltip_content": {
      "squares_settings": {
        "containers": [ {
          "id": "sq-container-403761",
          "settings": {
            "elements": [ {
              "settings": {
                "name": "Paragraph",
                "iconClass": "fa fa-paragraph"
              }
            } ]
          }
        } ]
      }
    }
  }, {
    "id": "text-2630",
    "title": "The Bonsai Restaurant & Café Lounge - 590m",
    "type": "text",
    "x": 74.653,
    "y": 44.495,
    "x_image_background": 74.653,
    "y_image_background": 44.495,
    "text": {
      "text": "12",
      "text_color": "#45b5cc"
    },
    "tooltip_content": {
      "squares_settings": {
        "containers": [ {
          "id": "sq-container-403761",
          "settings": {
            "elements": [ {
              "settings": {
                "name": "Paragraph",
                "iconClass": "fa fa-paragraph"
              }
            } ]
          }
        } ]
      }
    }
  }, {
    "id": "text-3833",
    "title": "PICA Bar & Café - 300m",
    "type": "text",
    "x": 74.326,
    "y": 54.656,
    "x_image_background": 74.326,
    "y_image_background": 54.656,
    "text": {
      "text": "14",
      "text_color": "#45b5cc"
    },
    "tooltip_content": {
      "squares_settings": {
        "containers": [ {
          "id": "sq-container-403761",
          "settings": {
            "elements": [ {
              "settings": {
                "name": "Paragraph",
                "iconClass": "fa fa-paragraph"
              }
            } ]
          }
        } ]
      }
    }
  }, {
    "id": "text-2180",
    "title": "Cheeky Sparrow - 780m",
    "type": "text",
    "x": 45.299,
    "y": 42.68,
    "x_image_background": 45.299,
    "y_image_background": 42.68,
    "text": {
      "text": "13",
      "text_color": "#45b5cc"
    },
    "tooltip_content": {
      "squares_settings": {
        "containers": [ {
          "id": "sq-container-403761",
          "settings": {
            "elements": [ {
              "settings": {
                "name": "Paragraph",
                "iconClass": "fa fa-paragraph"
              }
            } ]
          }
        } ]
      }
    }
  }, {
    "id": "text-4204",
    "title": "Northbridge Brewing Company - 670m",
    "type": "text",
    "x": 91.169,
    "y": 43.89,
    "x_image_background": 91.169,
    "y_image_background": 43.89,
    "text": {
      "text": "15",
      "text_color": "#45b5cc"
    },
    "tooltip_content": {
      "squares_settings": {
        "containers": [ {
          "id": "sq-container-403761",
          "settings": {
            "elements": [ {
              "settings": {
                "name": "Paragraph",
                "iconClass": "fa fa-paragraph"
              }
            } ]
          }
        } ]
      }
    }
  }, {
    "id": "text-4290",
    "title": "Jamie's Italian - 590m",
    "type": "text",
    "x": 54.619,
    "y": 42.801,
    "x_image_background": 54.619,
    "y_image_background": 42.801,
    "text": {
      "text": "16",
      "text_color": "#45b5cc"
    },
    "default_style": {
      "background_color": "#00ff00"
    },
    "tooltip_content": {
      "squares_settings": {
        "containers": [ {
          "id": "sq-container-403761",
          "settings": {
            "elements": [ {
              "settings": {
                "name": "Paragraph",
                "iconClass": "fa fa-paragraph"
              }
            } ]
          }
        } ]
      }
    }
  }, {
    "id": "text-1690",
    "title": "Northbridge Piazza -  670m",
    "type": "text",
    "x": 87.412,
    "y": 42.801,
    "x_image_background": 87.412,
    "y_image_background": 42.801,
    "text": {
      "text": "17",
      "text_color": "#ee2f55"
    },
    "tooltip_content": {
      "squares_settings": {
        "containers": [ {
          "id": "sq-container-403761",
          "settings": {
            "elements": [ {
              "settings": {
                "name": "Paragraph",
                "iconClass": "fa fa-paragraph"
              }
            } ]
          }
        } ]
      }
    }
  }, {
    "id": "text-342",
    "title": "Perth Arena – 1.1km",
    "type": "text",
    "x": 78.77,
    "y": 29.102,
    "x_image_background": 78.77,
    "y_image_background": 29.102,
    "text": {
      "text": "18",
      "text_color": "#ee2f55"
    },
    "tooltip_content": {
      "squares_settings": {
        "containers": [ {
          "id": "sq-container-403761",
          "settings": {
            "elements": [ {
              "settings": {
                "name": "Paragraph",
                "iconClass": "fa fa-paragraph"
              }
            } ]
          }
        } ]
      }
    }
  }, {
    "id": "text-3296",
    "title": "NIB Stadium - 740m",
    "type": "text",
    "x": 92.35,
    "y": 95.54,
    "x_image_background": 92.35,
    "y_image_background": 95.54,
    "text": {
      "text": "19",
      "text_color": "#ee2f55"
    },
    "tooltip_content": {
      "squares_settings": {
        "containers": [ {
          "id": "sq-container-403761",
          "settings": {
            "elements": [ {
              "settings": {
                "name": "Paragraph",
                "iconClass": "fa fa-paragraph"
              }
            } ]
          }
        } ]
      }
    }
  }, {
    "id": "text-1255",
    "title": "Kings Park - 1.9km",
    "type": "text",
    "x": 20.429,
    "y": 17.834,
    "x_image_background": 20.429,
    "y_image_background": 17.834,
    "text": {
      "text": "20",
      "text_color": "#ee2f55"
    },
    "tooltip_content": {
      "squares_settings": {
        "containers": [ {
          "id": "sq-container-403761",
          "settings": {
            "elements": [ {
              "settings": {
                "name": "Paragraph",
                "iconClass": "fa fa-paragraph"
              }
            } ]
          }
        } ]
      }
    }
  }, {
    "id": "text-3136",
    "title": "Elizabeth Quay - 1.1km",
    "type": "text",
    "x": 6.624,
    "y": 38.691,
    "x_image_background": 6.624,
    "y_image_background": 38.691,
    "text": {
      "text": "21",
      "text_color": "#ee2f55"
    },
    "tooltip_content": {
      "squares_settings": {
        "containers": [ {
          "id": "sq-container-403761",
          "settings": {
            "elements": [ {
              "settings": {
                "name": "Paragraph",
                "iconClass": "fa fa-paragraph"
              }
            } ]
          }
        } ]
      }
    }
  }, {
    "id": "text-1044",
    "title": "Perth Convention & Exhibition Centre - 1.2km",
    "type": "text",
    "x": 26.808,
    "y": 31.397,
    "x_image_background": 26.808,
    "y_image_background": 31.397,
    "text": {
      "text": "22",
      "text_color": "#ee2f55"
    },
    "tooltip_content": {
      "squares_settings": {
        "containers": [ {
          "id": "sq-container-403761",
          "settings": {
            "elements": [ {
              "settings": {
                "name": "Paragraph",
                "iconClass": "fa fa-paragraph"
              }
            } ]
          }
        } ]
      }
    }
  }, {
    "id": "text-9836",
    "title": "The Game Sports Bar - 700m",
    "type": "text",
    "x": 95.436,
    "y": 48.166,
    "x_image_background": 95.436,
    "y_image_background": 48.166,
    "text": {
      "text": "23",
      "text_color": "#ee2f55"
    },
    "tooltip_content": {
      "squares_settings": {
        "containers": [ {
          "id": "sq-container-403761",
          "settings": {
            "elements": [ {
              "settings": {
                "name": "Paragraph",
                "iconClass": "fa fa-paragraph"
              }
            } ]
          }
        } ]
      }
    }
  }, {
    "id": "text-4743",
    "title": "Metro Concert Club - 1km",
    "type": "text",
    "x": 87.797,
    "y": 31.728,
    "x_image_background": 87.797,
    "y_image_background": 31.728,
    "text": {
      "text": "24",
      "text_color": "#ee2f55"
    },
    "tooltip_content": {
      "squares_settings": {
        "containers": [ {
          "id": "sq-container-403761",
          "settings": {
            "elements": [ {
              "settings": {
                "name": "Paragraph",
                "iconClass": "fa fa-paragraph"
              }
            } ]
          }
        } ]
      }
    }
  }, {
    "id": "text-5103",
    "title": "Perth Train Station - 260m",
    "type": "text",
    "x": 67.848,
    "y": 43.91,
    "x_image_background": 67.848,
    "y_image_background": 43.91,
    "text": {
      "text": "25",
      "text_color": "#ee2f55"
    },
    "tooltip_content": {
      "squares_settings": {
        "containers": [ {
          "id": "sq-container-403761",
          "settings": {
            "elements": [ {
              "settings": {
                "name": "Paragraph",
                "iconClass": "fa fa-paragraph"
              }
            } ]
          }
        } ]
      }
    }
  }, {
    "id": "text-7202",
    "title": "Perth Cultural Centre - 170m",
    "type": "text",
    "x": 72.008,
    "y": 58.353,
    "x_image_background": 72.008,
    "y_image_background": 58.353,
    "text": {
      "text": "26",
      "text_color": "#ee2f55"
    },
    "tooltip_content": {
      "squares_settings": {
        "containers": [ {
          "id": "sq-container-403761",
          "settings": {
            "elements": [ {
              "settings": {
                "name": "Paragraph",
                "iconClass": "fa fa-paragraph"
              }
            } ]
          }
        } ]
      }
    }
  }, {
    "id": "text-7704",
    "title": "McIver Train Station - 250m",
    "type": "text",
    "x": 40.089,
    "y": 94.523,
    "x_image_background": 40.089,
    "y_image_background": 94.523,
    "text": {
      "text": "27",
      "text_color": "#ee2f55"
    },
    "tooltip_content": {
      "squares_settings": {
        "containers": [ {
          "id": "sq-container-403761",
          "settings": {
            "elements": [ {
              "settings": {
                "name": "Paragraph",
                "iconClass": "fa fa-paragraph"
              }
            } ]
          }
        } ]
      }
    }
  }, {
    "id": "text-8245",
    "title": "Art Gallery of Western Australia - 310m",
    "type": "text",
    "x": 66.575,
    "y": 54.962,
    "x_image_background": 66.575,
    "y_image_background": 54.962,
    "text": {
      "text": "28",
      "text_color": "#ee2f55"
    },
    "tooltip_content": {
      "squares_settings": {
        "containers": [ {
          "id": "sq-container-403761",
          "settings": {
            "elements": [ {
              "settings": {
                "name": "Paragraph",
                "iconClass": "fa fa-paragraph"
              }
            } ]
          }
        } ]
      }
    }
  }, {
    "id": "text-4231",
    "title": "Beaufort Street Strip - 1.4km",
    "type": "text",
    "x": 97.22,
    "y": 71.289,
    "x_image_background": 97.22,
    "y_image_background": 71.289,
    "text": {
      "text": "29",
      "text_color": "#ee2f55"
    },
    "tooltip_content": {
      "squares_settings": {
        "containers": [ {
          "id": "sq-container-403761",
          "settings": {
            "elements": [ {
              "settings": {
                "name": "Paragraph",
                "iconClass": "fa fa-paragraph"
              }
            } ]
          }
        } ]
      }
    }
  }, {
    "id": "text-2481",
    "title": "State Theatre Centre - 460m",
    "type": "text",
    "x": 72.432,
    "y": 48.055,
    "x_image_background": 72.432,
    "y_image_background": 48.055,
    "text": {
      "text": "30",
      "text_color": "#ee2f55"
    },
    "tooltip_content": {
      "squares_settings": {
        "containers": [ {
          "id": "sq-container-403761",
          "settings": {
            "elements": [ {
              "settings": {
                "name": "Paragraph",
                "iconClass": "fa fa-paragraph"
              }
            } ]
          }
        } ]
      }
    }
  }, {
    "id": "text-4508",
    "title": "Perth Institute of Contemporary Arts - 300m",
    "type": "text",
    "x": 71.328,
    "y": 52.702,
    "x_image_background": 71.328,
    "y_image_background": 52.702,
    "text": {
      "text": "31",
      "text_color": "#ee2f55"
    },
    "tooltip_content": {
      "squares_settings": {
        "containers": [ {
          "id": "sq-container-403761",
          "settings": {
            "elements": [ {
              "settings": {
                "name": "Paragraph",
                "iconClass": "fa fa-paragraph"
              }
            } ]
          }
        } ]
      }
    }
  }, {
    "id": "text-3297",
    "title": "Western Australian Museum - 220m",
    "type": "text",
    "x": 78.884,
    "y": 61.996,
    "x_image_background": 78.884,
    "y_image_background": 61.996,
    "text": {
      "text": "32",
      "text_color": "#ee2f55"
    },
    "tooltip_content": {
      "squares_settings": {
        "containers": [ {
          "id": "sq-container-403761",
          "settings": {
            "elements": [ {
              "settings": {
                "name": "Paragraph",
                "iconClass": "fa fa-paragraph"
              }
            } ]
          }
        } ]
      }
    }
  } ]
}
