<svg id="logo-verdant" class="img-fluid svg-logo-img mb-2 mt-2" xmlns="http://www.w3.org/2000/svg" version="1" viewBox="-4 -4 440 128" width="440px" height="128px">
  <defs>
    <filter id="dropshadow" x="-100%" y="-100%" width="300%" height="300%">
      <feGaussianBlur in="SourceAlpha" stdDeviation="1"/>
      <feOffset dx="1" dy="1" result="offsetblur"/>
      <feFlood flood-color="rgba(0,0,0,0.185)"/>
      <feComposite in2="offsetblur" operator="in"/>
      <feMerge>
        <feMergeNode/>
        <feMergeNode in="SourceGraphic"/>
      </feMerge>
    </filter>
  </defs>
  <path fill="#fff" filter="url(#dropshadow)" d="M349.5580444 119.9996338c3.4980774 0 6.0144043-1.9629974 6.0144043-4.9840012v-.0499954c0-2.6940002-1.8115234-4.1290054-5.7374573-4.9850006-3.875946-.8300018-4.7817078-1.7610016-4.7817078-3.4230042v-.0499954c0-1.5860062 1.4595947-2.8450012 3.75-2.8450012 1.8114929 0 3.447052.5790024 5.0836182 1.913002l1.1576843-1.5350037c-1.7875061-1.4349976-3.6240234-2.1650009-6.1913452-2.1650009-3.3470764 0-5.7884521 2.0390015-5.7884521 4.8079987v.0500031c0 2.8949966 1.8625183 4.2040024 5.9144287 5.0849991 3.6990051.7809982 4.58078 1.711998 4.58078 3.3479996v.0510025c0 1.7369995-1.5605774 2.9949951-3.9269409 2.9949951-2.4403687 0-4.2018738-.8299942-6.0393677-2.4919968l-1.2336731 1.4599991c2.1144105 1.8880004 4.4048157 2.8190002 7.1980286 2.8190002m-28.6392517-.2509995h2.0134583v-15.7840042h5.9133911v-1.8379974H315.004364v1.8379974h5.9144287v15.7840042zm-35.8623657 0h1.9374695v-14.4499969l11.3759766 14.4499969h1.5855713v-17.6220016h-1.9385071v14.1230011l-11.0979919-14.1230011h-1.8625183v17.6220016zm-28.1864014 0h12.8605347v-1.8119965H258.85849v-6.1680069h9.6134033v-1.8119965H258.85849v-6.0169983h10.7460938v-1.8130035h-12.7345581v17.6220017zm-33.1690673 0h1.9374695v-14.2480011l6.4172821 9.4150009h.1009674l6.4172668-9.4400024v14.2730026h1.9884644v-17.6220016h-2.013443l-6.4172821 9.6170044-6.4172668-9.6170044h-2.0134583v17.6220016zm-22.9768219 0h2.0134583v-15.7840042h5.9134064v-1.8379974H194.809723v1.8379974h5.9144135v15.7840042zm-32.0123749-8.6350021v-7.1490021h5.4365387c2.8432312 0 4.504776 1.3090057 4.504776 3.4740067v.0509949c0 2.2649994-1.8874817 3.6240005-4.5297852 3.6240005h-5.4115295zm-1.9874726 8.6350021h1.9874725v-6.8470001h5.0336456l5.1086273 6.8470001h2.4413452l-5.410553-7.1999969c2.7682495-.503006 4.7817078-2.215004 4.7817078-5.1350021v-.0500031c0-1.3849945-.5038605-2.6179962-1.3596344-3.473999-1.1067047-1.1080017-2.8432312-1.7630005-5.0076447-1.7630005h-7.5749664v17.6220016zm-27.8095245-6.4700012l4.0269165-8.9609985 4.0019379 8.9609985h-8.0288544zm-4.9076691 6.4700012h2.0384521l2.0894318-4.6569977h9.5884247l2.063446 4.6569977h2.1394196l-8.0278473-17.7470016h-1.8624878l-8.0288391 17.7470016zm-22.8758392-8.0299987v-7.7540054h4.453804c2.8442383 0 4.7317276 1.3090057 4.7317276 3.826004v.0510025c0 2.3160019-1.9124908 3.8769989-4.8317032 3.8769989h-4.3538284zm-1.9884644 8.0299987h1.9884644v-6.2180023h4.2778473c3.7499924 0 6.9211426-1.9639969 6.9211426-5.7639999v-.0509949c0-3.473999-2.6173019-5.5890045-6.594223-5.5890045h-6.5932312v17.6220016zm-27.8085174-6.4700012l4.0269165-8.9609985 4.0009232 8.9609985h-8.0278397zm-4.9076767 6.4700012h2.0384521l2.0884399-4.6569977h9.5884171l2.0644455 4.6569977h2.1384201l-8.027832-17.7470016h-1.8625031l-8.0278396 17.7470016zM432 .0463028v12.8380051h-20.6534424v48.7439957h-12.8345642V12.8843079h-20.6524048V.0463028H432zm-349.8838043 0h-12.834549v61.5820007h43.083397V48.7903061h-30.248848V37.2553024h23.8725662v-12.836998H82.1161957V12.8843079h30.248848V.0463028h-30.248848zm131.5385895 48.7445984c9.912323 0 17.9491577-8.0390015 17.9491577-17.9540024s-8.0368347-17.9529953-17.9491577-17.9529953h-9.4914551v35.9069977h9.4914551m0-48.7450028c17.000412 0 30.7827148 13.7860031 30.7827148 30.7910004s-13.7823029 30.7910004-30.7827148 30.7910004H191.3287964V.0458984H213.6547852m-59.7604218 30.745102c4.956665.0210037 8.9905853-3.9810028 9.0115662-8.9379959.0200043-4.8100052-3.7559814-8.7200012-8.5077057-8.9690018h-13.1724396V30.836998h12.6685791v-.0459976m26.9657288 30.836998h-15.049942l-11.0740204-18.0849991c-.2719269.0100021-.5288391.0780029-.8047791.0780029v.0540009h-12.7055664v17.9529953h-12.8335571V.0459976H153.9313508l.0899811.2060013V0c12.044754.0510025 21.7681427 9.8580017 21.7181549 21.9049988-.029007 7.0530014-3.4570618 13.2440033-8.6646576 17.2099991l13.785263 22.5130005zM354.5745544.0463028v37.6839981L327.1519165 3.4923096l-2.761261-3.4460068h-10.0742798V61.6283035h12.8355408V24.0253067l27.4226379 34.2359962 2.6952515 3.3670006h10.1392822V.0463028h-12.8345337zm-310.7673454 0l-15.0949383 42.602005L13.6163359.0463028H0l21.821125 61.5820007h13.7822915L57.4245415.0463028H43.807209zm238.7660332 0H268.9568786l-21.821106 61.5820007h13.6173401l15.0949097-42.6039963 15.0959473 42.6039963h13.616333L282.7402039.0463028h-.1669617z"/>
  <path class="verdant-stripe" fill="#75c043" filter="url(#dropshadow)" d="M6.9159403 77.2290955h418.1684265v7.1730003H6.9159403z"/>
</svg>
