<svg xmlns="http://www.w3.org/2000/svg" version="1" viewBox="0 0 72 138" class="img-fluid icon-chevron" width="72px" height="138px">
  <g class="icon-chevron-path">
    <path d="M1.9925947 138L0 135.8368225l67.8126373-66.8402252L0 2.1631801 1.9925947 0 72 68.9965973z"/>
  </g>
</svg>