<svg id="promo-sticker" class="img-fluid fp-promo-img mb-2 mt-2" xmlns="http://www.w3.org/2000/svg" version="1" viewBox="0 0 270 270" width="270px" height="270px">
  <circle style="box-shadow: 0 3px 3px -2px rgba(0,0,0,.2), 0 3px 4px 0 rgba(0,0,0,.14), 0 1px 8px 0 rgba(0,0,0,.12);" cx="135" cy="135" r="135" fill="#ed2f55"/>
  <path fill="#fff" d="M80.3588867 103.6767578V78.3320313l-10.402832 25.3447266h-5.8647461l-10.402832-25.140625v25.140625h-6.7314453V67.5214844h9.28125l10.8618164 26.109375 10.6069336-26.109375h9.5869141v36.1552734h-6.9350587zM118.8642578 91.1318359c0 7.7001953-5.6606445 13.3095703-13.1567383 13.3095703-7.496582 0-13.1567383-5.609375-13.1567383-13.3095703 0-7.7509766 5.6601563-13.3095703 13.1567383-13.3095703 7.4960938 0 13.1567383 5.5585938 13.1567383 13.3095703zm-6.7827148 0c0-4.7421875-3.0595703-7.1386719-6.3740234-7.1386719-3.3149414 0-6.3745117 2.3964844-6.3745117 7.1386719 0 4.6914063 3.0595703 7.1396484 6.3745117 7.1396484 3.3144531 1e-7 6.3740234-2.3964843 6.3740234-7.1396484zM136.8681641 103.6767578h-6.7822266l-10.25-25.0898438h7.4453125l6.2216797 16.8291016 5.9663086-16.8291016h7.1391602l-9.7402344 25.0898438zM172.0063477 96.4863281c-1.2749023 4.3349609-5.2524414 7.9550781-11.4228516 7.9550781-6.8842773 0-12.9526367-4.9462891-12.9526367-13.4111328 0-8.0068359 5.9155273-13.2080078 12.3408203-13.2080078 7.7509766 0 12.3916016 4.9462891 12.3916016 13.0039063 0 .96875-.1020508 1.9882813-.1020508 2.0908203h-17.9501953c.152832 3.3144531 2.9580078 5.7109375 6.3232422 5.7109375 3.1621094 0 4.8955078-1.5800781 5.7114258-3.8242188l5.6606445 1.6826172zm-6.3232422-8.2099609c-.1020508-2.4990234-1.7338867-4.9462891-5.609375-4.9462891-3.519043 0-5.456543 2.6513672-5.6098633 4.9462891h11.2192383zM49.8134766 114.1357422c2.3457031 0 4.1816406 1.8867188 4.1816406 4.2324219 0 2.2441406-1.8359375 4.1308594-4.1816406 4.1308594-2.2949219 0-4.1816406-1.8867188-4.1816406-4.1308594-1e-7-2.3457032 1.8867187-4.2324219 4.1816406-4.2324219zm-3.3657227 37.5322266V126.578125h6.7822266v25.0898438h-6.7822266zM66.7958984 151.6679688h-6.7822266V126.578125h6.578125v3.1113281c1.5302734-2.6005859 4.5385742-3.7734375 7.2416992-3.7734375 6.2211914 0 9.0766602 4.4365234 9.0766602 9.9433594v15.8085938h-6.7822266v-14.6357422c0-2.8046875-1.3769531-4.9970703-4.640625-4.9970703-2.9575195 0-4.6914063 2.2949219-4.6914063 5.2011719v14.4316406zM117.1318359 122.1933594v29.4746094h-7.0883789v-29.4746094H98.6206055v-6.6806641h29.934082v6.6806641h-11.4228516zM152.1162109 139.1230469c0 7.7001953-5.6606445 13.3095703-13.1567383 13.3095703-7.496582 0-13.1567383-5.609375-13.1567383-13.3095703 0-7.7509766 5.6601563-13.3095703 13.1567383-13.3095703 7.4960938 0 13.1567383 5.5585937 13.1567383 13.3095703zm-6.7827148 0c0-4.7421875-3.0595703-7.1386719-6.3740234-7.1386719-3.3149414 0-6.3745117 2.3964844-6.3745117 7.1386719 0 4.6914063 3.0595703 7.1396484 6.3745117 7.1396484 3.3144531 0 6.3740234-2.3964844 6.3740234-7.1396484zM180.9311523 147.1298828c0 1.6826172.1020508 3.5185547.2041016 4.5380859h-6.4765625c-.1015625-.5097656-.2548828-1.7333984-.2548828-2.90625-1.121582 1.9882813-3.6713867 3.5185547-7.0371094 3.5185547-7.1391602 0-12.2387695-5.609375-12.2387695-13.2080078 0-7.34375 4.9462891-13.1054688 12.034668-13.1054688 4.3344727 0 6.3745117 1.7841797 7.0883789 3.1103516v-14.3291016h6.6801758v32.381836zm-12.7485351-.9179687c3.4677734 0 6.1704102-2.6523438 6.1704102-7.1904297 0-4.4882813-2.7026367-6.9863281-6.1704102-6.9863281s-6.2216797 2.5498047-6.2216797 7.0371094 2.6518555 7.1396484 6.2216797 7.1396484zM193.6313477 137.2363281l6.1704102-.9179688c1.4277344-.2041016 1.8867188-.9179688 1.8867188-1.7851563 0-1.7841797-1.3764648-3.2636719-4.2324219-3.2636719-2.9575195 0-4.5893555 1.8876953-4.793457 4.0800781l-6.0175781-1.2744141c.4082031-3.9267578 4.0288086-8.2617188 10.7602539-8.2617188 7.9550781 0 10.9125977 4.4873047 10.9125977 9.5361328v12.3408203c0 1.3261719.1533203 3.1103516.3061523 3.9775391h-6.2216797c-.152832-.6630859-.2548828-2.0400391-.2548828-3.0087891-1.2749023 1.9892578-3.6713867 3.7226563-7.394043 3.7226563-5.3544922 0-8.6181641-3.6201172-8.6181641-7.546875-1e-7-4.488281 3.314453-6.9863279 7.4960937-7.5986326zm8.0571289 4.2832032v-1.1210938l-5.6601563.8662109c-1.7338867.2548828-3.1108398 1.2246094-3.1108398 3.1621094 0 1.4785156 1.0708008 2.90625 3.2636719 2.90625 2.855957 0 5.5073242-1.3759765 5.5073242-5.8134765zM215.5102539 161.5605469l5.9155273-13.0546875-10.6582031-21.9277344h7.5981445l6.6806641 14.6865234 6.1704102-14.6865234h7.2412109l-15.7578125 34.9824219h-7.1899414zM46.8071289 184.8447266v-15.6005859h5.456543c3.9604492 0 7.4150391 2.7070313 7.4150391 7.8330078 0 5.1054688-3.4985352 7.7675781-7.4589844 7.7675781h-5.4125977zm5.3466797-1.9140625c2.8823242 0 5.3027344-1.9365234 5.3027344-5.8535156 0-3.9384766-2.3764648-5.9179688-5.2587891-5.9179688h-3.234375v11.7714844h3.1904297zM63.4389648 168.7607422c.8359375 0 1.4960938.6601563 1.4960938 1.4960938 0 .8134766-.6601563 1.4736328-1.4960938 1.4736328-.8139648 0-1.4741211-.6601563-1.4741211-1.4736328 1e-7-.8359376.6601563-1.4960938 1.4741211-1.4960938zm-1.012207 16.0839844v-10.5839844h2.0463867v10.5839844h-2.0463867zM68.8720703 181.4345703c.1323242 1.0996094.9682617 1.9794922 2.4648438 1.9794922 1.1660156 0 1.8041992-.6591797 1.8041992-1.4082031 0-.6591797-.484375-1.1660156-1.3642578-1.3632813l-1.8041992-.3964844c-1.6503906-.3525391-2.640625-1.4746094-2.640625-2.9707031 0-1.8037109 1.6943359-3.34375 3.7626953-3.34375 2.9042969 0 3.8066406 1.8916016 4.0263672 2.8378906l-1.8261719.6816406c-.0878906-.5498047-.527832-1.7597656-2.2001953-1.7597656-1.0561523 0-1.7602539.6816406-1.7602539 1.4082031 0 .6376953.3959961 1.1005859 1.2099609 1.2763672l1.7163086.3740235c1.9145508.4179688 2.9262695 1.5839844 2.9262695 3.1464844 0 1.4960938-1.2539063 3.2783203-3.8725586 3.2783203-2.9042969 0-4.1362305-1.8701172-4.3125-3.0800781l1.8701172-.6601563zM77.9365234 189.0253906v-14.7646484h2.0024414v1.6503906c.5717773-1.0556641 1.8261719-1.8916016 3.5424805-1.8916016 3.168457 0 4.862793 2.4423828 4.862793 5.5224609 0 3.1464844-1.8266602 5.5888672-4.9287109 5.5888672-1.628418 0-2.8608398-.7705078-3.4326172-1.7167969v5.6113281h-2.0463868zm5.1708985-13.1796875c-1.8925781 0-3.1464844 1.5839844-3.1464844 3.6962891 0 2.1787109 1.2539063 3.7402344 3.1464844 3.7402344 1.9140625 0 3.1245117-1.5615234 3.1245117-3.7402344 0-2.1123047-1.1884766-3.6962891-3.1245117-3.6962891zM90.9819336 184.8447266v-15.9306641h2.0683594v15.9306641h-2.0683594zM99.1220703 178.7939453l2.8603516-.4179688c.6381836-.0878906.8144531-.4179688.8144531-.7919922 0-1.0341797-.6821289-1.8925781-2.2885742-1.8925781-1.4521484 0-2.2661133.9023438-2.3984375 2.1347656l-1.9799805-.4628906c.2197266-2.0234375 2.0463867-3.4316406 4.3344727-3.4316406 3.168457 0 4.4008789 1.8037109 4.4008789 3.8720703v5.3027344c0 .9238281.0878906 1.4746094.1318359 1.7382813h-2.0244141c-.0439453-.2636719-.1098633-.6601563-.1098633-1.4306641-.4619141.7490234-1.5180664 1.7607422-3.4106445 1.7607422-2.15625 0-3.5424805-1.4960938-3.5424805-3.1689453 1e-7-1.8916016 1.3862305-2.9482422 3.2124024-3.2119141zm3.6748047 1.5185547v-.484375l-3.234375.484375c-.8803711.1318359-1.5405273.6376953-1.5405273 1.5839844 0 .7919922.6601563 1.5400391 1.7163086 1.5400391 1.6943359-1e-7 3.0585937-.8144532 3.0585937-3.1240235zM108.2299805 189.2675781l2.640625-5.5888672-4.5546875-9.4179688h2.3759766l3.3007813 7.3056641 3.168457-7.3056641h2.222168l-6.887207 15.0068359h-2.2661134zM127.4140625 178.7939453l2.8603516-.4179688c.6381836-.0878906.8144531-.4179688.8144531-.7919922 0-1.0341797-.6821289-1.8925781-2.2885742-1.8925781-1.4521484 0-2.2661133.9023438-2.3984375 2.1347656l-1.9799805-.4628906c.2197266-2.0234375 2.0463867-3.4316406 4.3344727-3.4316406 3.168457 0 4.4008789 1.8037109 4.4008789 3.8720703v5.3027344c0 .9238281.0878906 1.4746094.1318359 1.7382813h-2.0244141c-.0439453-.2636719-.1098633-.6601563-.1098633-1.4306641-.4619141.7490234-1.5180664 1.7607422-3.4106445 1.7607422-2.15625 0-3.5424805-1.4960938-3.5424805-3.1689453 1e-7-1.8916016 1.3862305-2.9482422 3.2124024-3.2119141zm3.6748047 1.5185547v-.484375l-3.234375.484375c-.8803711.1318359-1.5405273.6376953-1.5405273 1.5839844 0 .7919922.6601563 1.5400391 1.7163086 1.5400391 1.6943359-1e-7 3.0585937-.8144532 3.0585937-3.1240235zM136.3676758 189.0253906v-14.7646484h2.0024414v1.6503906c.5717773-1.0556641 1.8261719-1.8916016 3.5424805-1.8916016 3.168457 0 4.862793 2.4423828 4.862793 5.5224609 0 3.1464844-1.8266602 5.5888672-4.9287109 5.5888672-1.628418 0-2.8608398-.7705078-3.4326172-1.7167969v5.6113281h-2.0463868zm5.1708984-13.1796875c-1.8925781 0-3.1464844 1.5839844-3.1464844 3.6962891 0 2.1787109 1.2539063 3.7402344 3.1464844 3.7402344 1.9140625 0 3.1245117-1.5615234 3.1245117-3.7402344 0-2.1123047-1.1884765-3.6962891-3.1245117-3.6962891zM151.9658203 178.7939453l2.8603516-.4179688c.6381836-.0878906.8144531-.4179688.8144531-.7919922 0-1.0341797-.6821289-1.8925781-2.2885742-1.8925781-1.4521484 0-2.2661133.9023438-2.3984375 2.1347656l-1.9799805-.4628906c.2197266-2.0234375 2.0463867-3.4316406 4.3344727-3.4316406 3.168457 0 4.4008789 1.8037109 4.4008789 3.8720703v5.3027344c0 .9238281.0878906 1.4746094.1318359 1.7382813h-2.0244141c-.0439453-.2636719-.1098633-.6601563-.1098633-1.4306641-.4619141.7490234-1.5180664 1.7607422-3.4106445 1.7607422-2.15625 0-3.5424805-1.4960938-3.5424805-3.1689453 1e-7-1.8916016 1.3862305-2.9482422 3.2124024-3.2119141zm3.6748047 1.5185547v-.484375l-3.234375.484375c-.8803711.1318359-1.5405273.6376953-1.5405273 1.5839844 0 .7919922.6601563 1.5400391 1.7163086 1.5400391 1.6943359-1e-7 3.0585937-.8144532 3.0585937-3.1240235zM166.7944336 176.3515625c-.3081055-.0439453-.6162109-.0664063-.9023438-.0664063-1.7382813 0-2.9042969.9248047-2.9042969 3.2568359v5.3027344h-2.0683594v-10.5839844h2.0244141v1.8486328c.7700195-1.6279297 2.090332-2.0244141 3.168457-2.0244141.2861328 0 .5717773.0439453.6821289.0664063v2.2001954zM172.293457 174.2607422h2.2880859v1.8710938h-2.2880859v5.5c0 .96875.3959961 1.4521484 1.4741211 1.4521484.2641602 0 .6381836-.0439453.8139648-.0878906v1.7607422c-.1757813.0654297-.7041016.1982422-1.4082031.1982422-1.8041992 0-2.9482422-1.1005859-2.9482422-3.0146484v-5.8085938h-2.0244141v-1.8710938h.5722656c1.144043 0 1.628418-.7041016 1.628418-1.6279297v-1.7158203h1.8920898v3.34375zM177.1328125 184.8447266v-10.5839844h1.9804688v1.4082031c.6601563-1.1660156 1.9799805-1.7158203 3.2124023-1.7158203 1.3198242 0 2.5961914.6376953 3.168457 2.0019531.8359375-1.5175781 2.2001953-2.0019531 3.5424805-2.0019531 1.8481445 0 3.6523438 1.2539063 3.6523438 4.0263672v6.8652344h-2.0463867v-6.6445313c0-1.3867188-.6821289-2.4208984-2.2441406-2.4208984-1.4521484 0-2.4423828 1.1445313-2.4423828 2.6621094v6.4033203h-2.0683594v-6.6445313c0-1.3642578-.6601563-2.4208984-2.2441406-2.4208984-1.4741211 0-2.4643555 1.1005859-2.4643555 2.6845703v6.3808594h-2.0463868zM205.2060547 181.8300781c-.59375 1.8701172-2.2880859 3.3447266-4.7524414 3.3447266-2.8383789 0-5.324707-2.0683594-5.324707-5.6552734 0-3.3222656 2.3979492-5.5878906 5.0605469-5.5878906 3.2563477 0 5.0825195 2.2441406 5.0825195 5.5439453 0 .2646484-.0219727.5283203-.0439453.6601563h-7.9648438c.0439453 1.8925781 1.4082031 3.2128906 3.1904297 3.2128906 1.7163086 0 2.5742188-.9462891 2.9702148-2.1347656l1.7822266.6162108zm-2.090332-3.3662109c-.0439453-1.5185547-1.0341797-2.7060547-2.9042969-2.7060547-1.7382813 0-2.7944336 1.3417969-2.8823242 2.7060547h5.7866211zM209.9790039 184.8447266h-2.0683594v-10.5839844h2.0244141v1.5185547c.7700195-1.3203125 2.0239258-1.8261719 3.2563477-1.8261719 2.5302734 0 3.784668 1.8261719 3.784668 4.1806641v6.7109375h-2.0683594v-6.359375c0-1.4736328-.6162109-2.6621094-2.4643555-2.6621094-1.628418 0-2.4643555 1.2988281-2.4643555 2.9042969v6.1171875zM223.046875 174.2607422h2.2880859v1.8710938h-2.2880859v5.5c0 .96875.3959961 1.4521484 1.4741211 1.4521484.2641602 0 .6381836-.0439453.8139648-.0878906v1.7607422c-.1757813.0654297-.7041016.1982422-1.4082031.1982422-1.8041992 0-2.9482422-1.1005859-2.9482422-3.0146484v-5.8085938h-2.0244141v-1.8710938h.5722656c1.144043 0 1.6279297-.7041016 1.6279297-1.6279297v-1.7158203h1.8925781v3.34375zM48.6552734 210.8486328H46.586914v-10.5839844h2.0244141v1.5185547c.7700195-1.3203125 2.0244141-1.8261719 3.2563477-1.8261719 2.5302734 0 3.784668 1.8261719 3.784668 4.1806641v6.7109375h-2.0683594v-6.359375c0-1.4736328-.6162109-2.6621094-2.4643555-2.6621094-1.628418 0-2.4643555 1.2988281-2.4643555 2.9042969v6.1171875zM68.8959961 205.5458984c0 3.234375-2.2441406 5.6328125-5.4125977 5.6328125s-5.4130859-2.3984375-5.4130859-5.6328125c0-3.2128906 2.2446289-5.6103516 5.4130859-5.6103516s5.4125977 2.397461 5.4125977 5.6103516zm-2.1123047 0c0-2.4423828-1.5400391-3.7626953-3.300293-3.7626953s-3.3007813 1.3203125-3.3007813 3.7626953c0 2.4638672 1.5405273 3.7841797 3.3007813 3.7841797s3.300293-1.3203125 3.300293-3.7841797zM79.4335938 200.2646484l2.7504883 7.9658203 2.3320313-7.9658203h2.1787109l-3.4326172 10.5839844h-2.1342773l-2.8164063-8.0527344-2.7504883 8.0527344h-2.1782227L69.90625 200.2646484h2.2661133l2.3764648 7.9658203 2.7504883-7.9658203h2.1342774zM104.2280273 205.5458984c0 3.234375-2.2441406 5.6328125-5.4125977 5.6328125s-5.4130859-2.3984375-5.4130859-5.6328125c0-3.2128906 2.2446289-5.6103516 5.4130859-5.6103516s5.4125977 2.397461 5.4125977 5.6103516zm-2.1123046 0c0-2.4423828-1.5400391-3.7626953-3.300293-3.7626953s-3.3007813 1.3203125-3.3007813 3.7626953c0 2.4638672 1.5405273 3.7841797 3.3007813 3.7841797s3.300293-1.3203125 3.300293-3.7841797zM106.8662109 215.0292969v-14.7646484h2.0024414v1.6503906c.5717773-1.0556641 1.8261719-1.8916016 3.5424805-1.8916016 3.168457 0 4.862793 2.4423828 4.862793 5.5224609 0 3.1464844-1.8266602 5.5888672-4.9287109 5.5888672-1.628418 0-2.8608398-.7705078-3.4326172-1.7167969v5.6113281h-2.0463868zm5.1708985-13.1796875c-1.8925781 0-3.1464844 1.5839844-3.1464844 3.6962891 0 2.1787109 1.2539063 3.7402344 3.1464844 3.7402344 1.9140625 0 3.1245117-1.5615234 3.1245117-3.7402344 0-2.1123047-1.1884766-3.6962891-3.1245117-3.6962891zM129.1313477 207.8339844c-.5942383 1.8701172-2.2880859 3.3447266-4.7524414 3.3447266-2.8383789 0-5.324707-2.0683594-5.324707-5.6552734 0-3.3222656 2.3979492-5.5878906 5.0605469-5.5878906 3.2563477 0 5.0825195 2.2441406 5.0825195 5.5439453 0 .2646484-.0219727.5283203-.0439453.6601563h-7.9648438c.0439453 1.8925781 1.4082031 3.2128906 3.1904297 3.2128906 1.7163086 0 2.5742188-.9462891 2.9702148-2.1347656l1.7822266.6162108zm-2.0903321-3.366211c-.0439453-1.5185547-1.0341797-2.7060547-2.9042969-2.7060547-1.7382813 0-2.7944336 1.3417969-2.8823242 2.7060547h5.7866211zM133.9042969 210.8486328h-2.0683594v-10.5839844h2.0244141v1.5185547c.7700195-1.3203125 2.0244141-1.8261719 3.2563477-1.8261719 2.5302734 0 3.784668 1.8261719 3.784668 4.1806641v6.7109375h-2.0683594v-6.359375c0-1.4736328-.6162109-2.6621094-2.4643555-2.6621094-1.628418 0-2.4643555 1.2988281-2.4643555 2.9042969v6.1171875z"/>
</svg>