<svg class="video-mute-icon img-fluid" xmlns="http://www.w3.org/2000/svg" version="1" viewBox="0 0 26 20" width="26px" height="20px">
  <path fill="#fff" d="M13.9520502 20L0 13.9194508V5.5276809L13.9520502 0v20zM.996575 13.2387657l11.9588995 5.2113991V1.4946994L.996575 6.2324252v7.0063405zM19.7991428 13.6868753l-.7318592-.6967248 5.9794503-6.6725145.7318592.6967244z"/>
  <path fill="#fff" d="M25.3236141 13.4598131l-6.4777374-6.159244.6763859-.7538662L26 12.7059469z"/>
</svg>
